[
    {"id":10101,"name":"Quận Ba Đình","name_en":"ba dinh","province_id":"101"},
    {"id":10103,"name":"Quận Tây Hồ","name_en":"tay ho","province_id":"101"},
    {"id":10105,"name":"Quận Hoàn Kiếm","name_en":"hoan kiem","province_id":"101"},
    {"id":10107,"name":"Quận Hai Bà Trưng","name_en":"hai ba trung","province_id":"101"},
    {"id":10108,"name":"Quận Hoàng Mai","name_en":"hoang mai","province_id":"101"},
    {"id":10109,"name":"Quận Đống Đa","name_en":"dong da","province_id":"101"},
    {"id":10111,"name":"Quận Thanh Xuân","name_en":"thanh xuan","province_id":"101"},
    {"id":10113,"name":"Quận Cầu Giấy","name_en":"cau giay","province_id":"101"},
    {"id":10114,"name":"Quận Long Biên","name_en":"long bien","province_id":"101"},
    {"id":10115,"name":"Huyện Sóc Sơn","name_en":"soc son","province_id":"101"},
    {"id":10117,"name":"Huyện Đông Anh","name_en":"dong anh","province_id":"101"},
    {"id":10119,"name":"Huyện Gia Lâm","name_en":"gia lam","province_id":"101"},
    {"id":10121,"name":"Quận Nam Từ Liêm","name_en":"nam tu liem","province_id":"101"},
    {"id":10123,"name":"Huyện Thanh Trì","name_en":"thanh tri","province_id":"101"},
    {"id":10125,"name":"Quận Hà Đông","name_en":"ha dong","province_id":"101"},
    {"id":10127,"name":"Thị xã Sơn Tây","name_en":"son tay","province_id":"101"},
    {"id":10129,"name":"Huyện Ba Vì","name_en":"ba vi","province_id":"101"},
    {"id":10131,"name":"Huyện Phúc Thọ","name_en":"phuc tho","province_id":"101"},
    {"id":10133,"name":"Huyện Đan Phượng","name_en":"dan phuong","province_id":"101"},
    {"id":10135,"name":"Huyện Thạch Thất","name_en":"thach that","province_id":"101"},
    {"id":10137,"name":"Huyện Hoài Đức","name_en":"hoai duc","province_id":"101"},
    {"id":10139,"name":"Huyện Quốc Oai","name_en":"quoc oai","province_id":"101"},
    {"id":10141,"name":"Huyện Chương Mỹ","name_en":"chuong my","province_id":"101"},
    {"id":10143,"name":"Huyện Thanh Oai","name_en":"thanh oai","province_id":"101"},
    {"id":10145,"name":"Huyện Thường Tín","name_en":"thuong tin","province_id":"101"},
    {"id":10147,"name":"Huyện Mỹ Đức","name_en":"my duc","province_id":"101"},
    {"id":10149,"name":"Huyện Ứng Hòa","name_en":"ung hoa","province_id":"101"},
    {"id":10151,"name":"Huyện Phú Xuyên","name_en":"phu xuyen","province_id":"101"},
    {"id":10153,"name":"Huyện Mê Linh","name_en":"me linh","province_id":"101"},
    {"id":10155,"name":"Quận Bắc Từ Liêm","name_en":"bac tu liem","province_id":"101"},
    {"id":10301,"name":"Quận Hồng Bàng","name_en":"hong bang","province_id":"103"},
    {"id":10303,"name":"Quận Ngô Quyền","name_en":"ngo quyen","province_id":"103"},
    {"id":10305,"name":"Quận Lê Chân","name_en":"le chan","province_id":"103"},
    {"id":10307,"name":"Quận Kiến An","name_en":"kien an","province_id":"103"},
    {"id":10309,"name":"Quận Đồ Sơn","name_en":"do son","province_id":"103"},
    {"id":10310,"name":"Quận Dương Kinh","name_en":"duong kinh","province_id":"103"},
    {"id":10311,"name":"Huyện Thủy Nguyên","name_en":"thuy nguyen","province_id":"103"},
    {"id":10313,"name":"Huyện An Dương","name_en":"an duong","province_id":"103"},
    {"id":10314,"name":"Quận Hải An","name_en":"hai an","province_id":"103"},
    {"id":10315,"name":"Huyện An Lão","name_en":"an lao","province_id":"103"},
    {"id":10317,"name":"Huyện Kiến Thụy","name_en":"kien thuy","province_id":"103"},
    {"id":10319,"name":"Huyện Tiên Lãng","name_en":"tien lang","province_id":"103"},
    {"id":10321,"name":"Huyện Vĩnh Bảo","name_en":"vinh bao","province_id":"103"},
    {"id":10323,"name":"Huyện Cát Hải","name_en":"cat hai","province_id":"103"},
    {"id":10325,"name":"Huyện Bạch Long Vĩ","name_en":"bach long vi","province_id":"103"},
    {"id":10401,"name":"Thành phố Vĩnh Yên","name_en":"vinh yen","province_id":"104"},
    {"id":10402,"name":"Thị xã Phúc Yên","name_en":"phuc yen","province_id":"104"},
    {"id":10403,"name":"Huyện Lập Thạch","name_en":"lap thach","province_id":"104"},
    {"id":10404,"name":"Huyện Tam Đảo","name_en":"tam dao","province_id":"104"},
    {"id":10405,"name":"Huyện Tam Dương","name_en":"tam duong","province_id":"104"},
    {"id":10406,"name":"Huyện Bình Xuyên","name_en":"binh xuyen","province_id":"104"},
    {"id":10407,"name":"Huyện Vĩnh Tường","name_en":"vinh tuong","province_id":"104"},
    {"id":10409,"name":"Huyện Yên Lạc","name_en":"yen lac","province_id":"104"},
    {"id":10411,"name":"Huyện Sông Lô","name_en":"song lo","province_id":"104"},
    {"id":10601,"name":"Thành phố Bắc Ninh","name_en":"bac ninh","province_id":"106"},
    {"id":10603,"name":"Huyện Yên Phong","name_en":"yen phong","province_id":"106"},
    {"id":10605,"name":"Huyện Quế Võ","name_en":"que vo","province_id":"106"},
    {"id":10607,"name":"Huyện Tiên Du","name_en":"tien du","province_id":"106"},
    {"id":10608,"name":"Thị xã Từ Sơn","name_en":"tu son","province_id":"106"},
    {"id":10609,"name":"Huyện Thuận Thành","name_en":"thuan thanh","province_id":"106"},
    {"id":10611,"name":"Huyện Lương Tài","name_en":"luong tai","province_id":"106"},
    {"id":10612,"name":"Huyện Gia Bình","name_en":"gia binh","province_id":"106"},
    {"id":10701,"name":"Thành phố Hải Dương","name_en":"hai duong","province_id":"107"},
    {"id":10703,"name":"Thị xã Chí Linh","name_en":"chi linh","province_id":"107"},
    {"id":10705,"name":"Huyện Nam Sách","name_en":"nam sach","province_id":"107"},
    {"id":10707,"name":"Huyện Thanh Hà","name_en":"thanh ha","province_id":"107"},
    {"id":10709,"name":"Huyện Kinh Môn","name_en":"kinh mon","province_id":"107"},
    {"id":10711,"name":"Huyện Kim Thành","name_en":"kim thanh","province_id":"107"},
    {"id":10713,"name":"Huyện Gia Lộc","name_en":"gia loc","province_id":"107"},
    {"id":10715,"name":"Huyện Tứ Kỳ","name_en":"tu ky","province_id":"107"},
    {"id":10717,"name":"Huyện Cẩm Giàng","name_en":"cam giang","province_id":"107"},
    {"id":10719,"name":"Huyện Bình Giang","name_en":"binh giang","province_id":"107"},
    {"id":10721,"name":"Huyện Thanh Miện","name_en":"thanh mien","province_id":"107"},
    {"id":10723,"name":"Huyện Ninh Giang","name_en":"ninh giang","province_id":"107"},
    {"id":10901,"name":"Thành phố Hưng Yên","name_en":"hung yen","province_id":"109"},
    {"id":10902,"name":"Huyện Văn Lâm","name_en":"van lam","province_id":"109"},
    {"id":10903,"name":"Huyện Mỹ Hào","name_en":"my hao","province_id":"109"},
    {"id":10904,"name":"Huyện Yên Mỹ","name_en":"yen my","province_id":"109"},
    {"id":10905,"name":"Huyện Văn Giang","name_en":"van giang","province_id":"109"},
    {"id":10906,"name":"Huyện Khoái Châu","name_en":"khoai chau","province_id":"109"},
    {"id":10907,"name":"Huyện Ân Thi","name_en":"an thi","province_id":"109"},
    {"id":10909,"name":"Huyện Kim Động","name_en":"kim dong","province_id":"109"},
    {"id":10911,"name":"Huyện Phù Cừ","name_en":"phu cu","province_id":"109"},
    {"id":10913,"name":"Huyện Tiên Lữ","name_en":"tien lu","province_id":"109"},
    {"id":11101,"name":"Thành phố Phủ Lý","name_en":"phu ly","province_id":"111"},
    {"id":11103,"name":"Huyện Duy Tiên","name_en":"duy tien","province_id":"111"},
    {"id":11105,"name":"Huyện Kim Bảng","name_en":"kim bang","province_id":"111"},
    {"id":11107,"name":"Huyện Lý Nhân","name_en":"ly nhan","province_id":"111"},
    {"id":11109,"name":"Huyện Thanh Liêm","name_en":"thanh liem","province_id":"111"},
    {"id":11111,"name":"Huyện Bình Lục","name_en":"binh luc","province_id":"111"},
    {"id":11301,"name":"Thành phố Nam Định","name_en":"nam dinh","province_id":"113"},
    {"id":11303,"name":"Huyện Vụ Bản","name_en":"vu ban","province_id":"113"},
    {"id":11305,"name":"Huyện Mỹ Lộc","name_en":"my loc","province_id":"113"},
    {"id":11307,"name":"Huyện Ý Yên","name_en":"y yen","province_id":"113"},
    {"id":11309,"name":"Huyện Nam Trực","name_en":"nam truc","province_id":"113"},
    {"id":11311,"name":"Huyện Trực Ninh","name_en":"truc ninh","province_id":"113"},
    {"id":11313,"name":"Huyện Xuân Trường","name_en":"xuan truong","province_id":"113"},
    {"id":11315,"name":"Huyện Giao Thủy","name_en":"giao thuy","province_id":"113"},
    {"id":11317,"name":"Huyện Nghĩa Hưng","name_en":"nghia hung","province_id":"113"},
    {"id":11319,"name":"Huyện Hải Hậu","name_en":"hai hau","province_id":"113"},
    {"id":11501,"name":"Thành phố Thái Bình","name_en":"thai binh","province_id":"115"},
    {"id":11503,"name":"Huyện Quỳnh Phụ","name_en":"quynh phu","province_id":"115"},
    {"id":11505,"name":"Huyện Hưng Hà","name_en":"hung ha","province_id":"115"},
    {"id":11507,"name":"Huyện Thái Thụy","name_en":"thai thuy","province_id":"115"},
    {"id":11509,"name":"Huyện Đông Hưng","name_en":"dong hung","province_id":"115"},
    {"id":11511,"name":"Huyện Vũ Thư","name_en":"vu thu","province_id":"115"},
    {"id":11513,"name":"Huyện Kiến Xương","name_en":"kien xuong","province_id":"115"},
    {"id":11515,"name":"Huyện Tiền Hải","name_en":"tien hai","province_id":"115"},
    {"id":11701,"name":"Thành phố Ninh Bình","name_en":"ninh binh","province_id":"117"},
    {"id":11703,"name":"Thị xã Tam Điệp","name_en":"tam diep","province_id":"117"},
    {"id":11705,"name":"Huyện Nho Quan","name_en":"nho quan","province_id":"117"},
    {"id":11707,"name":"Huyện Gia Viễn","name_en":"gia vien","province_id":"117"},
    {"id":11709,"name":"Huyện Hoa Lư","name_en":"hoa lu","province_id":"117"},
    {"id":11711,"name":"Huyện Yên Mô","name_en":"yen mo","province_id":"117"},
    {"id":11713,"name":"Huyện Yên Khánh","name_en":"yen khanh","province_id":"117"},
    {"id":11715,"name":"Huyện Kim Sơn","name_en":"kim son","province_id":"117"},
    {"id":20101,"name":"Thành phố Hà Giang","name_en":"ha giang","province_id":"201"},
    {"id":20103,"name":"Huyện Đồng Văn","name_en":"dong van","province_id":"201"},
    {"id":20105,"name":"Huyện Mèo Vạc","name_en":"meo vac","province_id":"201"},
    {"id":20107,"name":"Huyện Yên Minh","name_en":"yen minh","province_id":"201"},
    {"id":20109,"name":"Huyện Quản Bạ","name_en":"quan ba","province_id":"201"},
    {"id":20111,"name":"Huyện Bắc Mê","name_en":"bac me","province_id":"201"},
    {"id":20113,"name":"Huyện Hoàng Su Phì","name_en":"hoang su phi","province_id":"201"},
    {"id":20115,"name":"Huyện Vị Xuyên","name_en":"vi xuyen","province_id":"201"},
    {"id":20117,"name":"Huyện Xín Mần","name_en":"xin man","province_id":"201"},
    {"id":20119,"name":"Huyện Bắc Quang","name_en":"bac quang","province_id":"201"},
    {"id":20120,"name":"Huyện Quang Bình","name_en":"quang binh","province_id":"201"},
    {"id":20301,"name":"Thành phố Cao Bằng","name_en":"cao bang","province_id":"203"},
    {"id":20303,"name":"Huyện Bảo Lạc","name_en":"bao lac","province_id":"203"},
    {"id":20304,"name":"Huyện Bảo Lâm","name_en":"bao lam","province_id":"203"},
    {"id":20305,"name":"Huyện Hà Quảng","name_en":"ha quang","province_id":"203"},
    {"id":20307,"name":"Huyện Thông Nông","name_en":"thong nong","province_id":"203"},
    {"id":20309,"name":"Huyện Trà Lĩnh","name_en":"tra linh","province_id":"203"},
    {"id":20311,"name":"Huyện Trùng Khánh","name_en":"trung khanh","province_id":"203"},
    {"id":20313,"name":"Huyện Nguyên Bình","name_en":"nguyen binh","province_id":"203"},
    {"id":20315,"name":"Huyện Hòa An","name_en":"hoa an","province_id":"203"},
    {"id":20317,"name":"Huyện Quảng Uyên","name_en":"quang uyen","province_id":"203"},
    {"id":20318,"name":"Huyện Phục Hòa","name_en":"phuc hoa","province_id":"203"},
    {"id":20319,"name":"Huyện Hạ Lang","name_en":"ha lang","province_id":"203"},
    {"id":20321,"name":"Huyện Thạch An","name_en":"thach an","province_id":"203"},
    {"id":20501,"name":"Thành phố Lào Cai","name_en":"lao cai","province_id":"205"},
    {"id":20505,"name":"Huyện Mường Khương","name_en":"muong khuong","province_id":"205"},
    {"id":20507,"name":"Huyện Bát Xát","name_en":"bat xat","province_id":"205"},
    {"id":20508,"name":"Huyện Si Ma Cai","name_en":"si ma cai","province_id":"205"},
    {"id":20509,"name":"Huyện Bắc Hà","name_en":"bac ha","province_id":"205"},
    {"id":20511,"name":"Huyện Bảo Thắng","name_en":"bao thang","province_id":"205"},
    {"id":20513,"name":"Huyện Sa Pa","name_en":"sa pa","province_id":"205"},
    {"id":20515,"name":"Huyện Bảo Yên","name_en":"bao yen","province_id":"205"},
    {"id":20519,"name":"Huyện Văn Bàn","name_en":"van ban","province_id":"205"},
    {"id":20701,"name":"Thị xã Bắc Kạn","name_en":"bac kan","province_id":"207"},
    {"id":20703,"name":"Huyện Ba Bể","name_en":"ba be","province_id":"207"},
    {"id":20704,"name":"Huyện Pác Nặm","name_en":"pac nam","province_id":"207"},
    {"id":20705,"name":"Huyện Ngân Sơn","name_en":"ngan son","province_id":"207"},
    {"id":20707,"name":"Huyện Chợ Đồn","name_en":"cho don","province_id":"207"},
    {"id":20709,"name":"Huyện Na Rì","name_en":"na ri","province_id":"207"},
    {"id":20711,"name":"Huyện Bạch Thông","name_en":"bach thong","province_id":"207"},
    {"id":20712,"name":"Huyện Chợ Mới","name_en":"cho moi","province_id":"207"},
    {"id":20901,"name":"Thành phố Lạng Sơn","name_en":"lang son","province_id":"209"},
    {"id":20903,"name":"Huyện Tràng Định","name_en":"trang dinh","province_id":"209"},
    {"id":20905,"name":"Huyện Văn Lãng","name_en":"van lang","province_id":"209"},
    {"id":20907,"name":"Huyện Bình Gia","name_en":"binh gia","province_id":"209"},
    {"id":20909,"name":"Huyện Bắc Sơn","name_en":"bac son","province_id":"209"},
    {"id":20911,"name":"Huyện Văn Quan","name_en":"van quan","province_id":"209"},
    {"id":20913,"name":"Huyện Cao Lộc","name_en":"cao loc","province_id":"209"},
    {"id":20915,"name":"Huyện Lộc Bình","name_en":"loc binh","province_id":"209"},
    {"id":20917,"name":"Huyện Chi Lăng","name_en":"chi lang","province_id":"209"},
    {"id":20919,"name":"Huyện Đình Lập","name_en":"dinh lap","province_id":"209"},
    {"id":20921,"name":"Huyện Hữu Lũng","name_en":"huu lung","province_id":"209"},
    {"id":21101,"name":"Thành phố Tuyên Quang","name_en":"tuyen quang","province_id":"211"},
    {"id":21103,"name":"Huyện Na Hang","name_en":"na hang","province_id":"211"},
    {"id":21105,"name":"Huyện Chiêm Hóa","name_en":"chiem hoa","province_id":"211"},
    {"id":21107,"name":"Huyện Hàm Yên","name_en":"ham yen","province_id":"211"},
    {"id":21109,"name":"Huyện Yên Sơn","name_en":"yen son","province_id":"211"},
    {"id":21111,"name":"Huyện Sơn Dương","name_en":"son duong","province_id":"211"},
    {"id":21112,"name":"Huyện Lâm Bình","name_en":"lam binh","province_id":"211"},
    {"id":21301,"name":"Thành phố Yên Bái","name_en":"yen bai","province_id":"213"},
    {"id":21303,"name":"Thị xã Nghĩa Lộ","name_en":"nghia lo","province_id":"213"},
    {"id":21305,"name":"Huyện Lục Yên","name_en":"luc yen","province_id":"213"},
    {"id":21307,"name":"Huyện Văn Yên","name_en":"van yen","province_id":"213"},
    {"id":21309,"name":"Huyện Mù Cang Chải","name_en":"mu cang chai","province_id":"213"},
    {"id":21311,"name":"Huyện Trấn Yên","name_en":"tran yen","province_id":"213"},
    {"id":21313,"name":"Huyện Yên Bình","name_en":"yen binh","province_id":"213"},
    {"id":21315,"name":"Huyện Văn Chấn","name_en":"van chan","province_id":"213"},
    {"id":21317,"name":"Huyện Trạm Tấu","name_en":"tram tau","province_id":"213"},
    {"id":21501,"name":"Thành phố Thái Nguyên","name_en":"thai nguyen","province_id":"215"},
    {"id":21503,"name":"Thị xã Sông Công","name_en":"song cong","province_id":"215"},
    {"id":21505,"name":"Huyện Định Hóa","name_en":"dinh hoa","province_id":"215"},
    {"id":21507,"name":"Huyện Võ Nhai","name_en":"vo nhai","province_id":"215"},
    {"id":21509,"name":"Huyện Phú Lương","name_en":"phu luong","province_id":"215"},
    {"id":21511,"name":"Huyện Đồng Hỷ","name_en":"dong hy","province_id":"215"},
    {"id":21513,"name":"Huyện Đại Từ","name_en":"dai tu","province_id":"215"},
    {"id":21515,"name":"Huyện Phú Bình","name_en":"phu binh","province_id":"215"},
    {"id":21517,"name":"Huyện Phổ Yên","name_en":"pho yen","province_id":"215"},
    {"id":21701,"name":"Thành phố Việt Trì","name_en":"viet tri","province_id":"217"},
    {"id":21703,"name":"Thị xã Phú Thọ","name_en":"phu tho","province_id":"217"},
    {"id":21705,"name":"Huyện Đoan Hùng","name_en":"doan hung","province_id":"217"},
    {"id":21707,"name":"Huyện Hạ Hòa","name_en":"ha hoa","province_id":"217"},
    {"id":21709,"name":"Huyện Thanh Ba","name_en":"thanh ba","province_id":"217"},
    {"id":21711,"name":"Huyện Phù Ninh","name_en":"phu ninh","province_id":"217"},
    {"id":21712,"name":"Huyện Lâm Thao","name_en":"lam thao","province_id":"217"},
    {"id":21713,"name":"Huyện Cẩm Khê","name_en":"cam khe","province_id":"217"},
    {"id":21715,"name":"Huyện Yên Lập","name_en":"yen lap","province_id":"217"},
    {"id":21717,"name":"Huyện Tam Nông","name_en":"tam nong","province_id":"217"},
    {"id":21718,"name":"Huyện Thanh Thủy","name_en":"thanh thuy","province_id":"217"},
    {"id":21719,"name":"Huyện Thanh Sơn","name_en":"thanh son","province_id":"217"},
    {"id":21720,"name":"Huyện Tân Sơn","name_en":"tan son","province_id":"217"},
    {"id":22101,"name":"Thành phố Bắc Giang","name_en":"bac giang","province_id":"221"},
    {"id":22103,"name":"Huyện Yên Thế","name_en":"yen the","province_id":"221"},
    {"id":22105,"name":"Huyện Tân Yên","name_en":"tan yen","province_id":"221"},
    {"id":22107,"name":"Huyện Lục Ngạn","name_en":"luc ngan","province_id":"221"},
    {"id":22109,"name":"Huyện Hiệp Hòa","name_en":"hiep hoa","province_id":"221"},
    {"id":22111,"name":"Huyện Lạng Giang","name_en":"lang giang","province_id":"221"},
    {"id":22113,"name":"Huyện Sơn Động","name_en":"son dong","province_id":"221"},
    {"id":22115,"name":"Huyện Lục Nam","name_en":"luc nam","province_id":"221"},
    {"id":22117,"name":"Huyện Việt Yên","name_en":"viet yen","province_id":"221"},
    {"id":22119,"name":"Huyện Yên Dũng","name_en":"yen dung","province_id":"221"},
    {"id":22501,"name":"Thành phố Hạ Long","name_en":"ha long","province_id":"225"},
    {"id":22503,"name":"Thành phố Cẩm Phả","name_en":"cam pha","province_id":"225"},
    {"id":22505,"name":"Thành phố Uông Bí","name_en":"uong bi","province_id":"225"},
    {"id":22506,"name":"Thành phố Móng Cái","name_en":"mong cai","province_id":"225"},
    {"id":22507,"name":"Huyện Bình Liêu","name_en":"binh lieu","province_id":"225"},
    {"id":22511,"name":"Huyện Hải Hà","name_en":"hai ha","province_id":"225"},
    {"id":22512,"name":"Huyện Đầm Hà","name_en":"dam ha","province_id":"225"},
    {"id":22513,"name":"Huyện Tiên Yên","name_en":"tien yen","province_id":"225"},
    {"id":22515,"name":"Huyện Ba Chẽ","name_en":"ba che","province_id":"225"},
    {"id":22517,"name":"Huyện Vân Đồn","name_en":"van don","province_id":"225"},
    {"id":22519,"name":"Huyện Hoành Bồ","name_en":"hoanh bo","province_id":"225"},
    {"id":22521,"name":"Huyện Đông Triều","name_en":"dong trieu","province_id":"225"},
    {"id":22523,"name":"Huyện Cô Tô","name_en":"co to","province_id":"225"},
    {"id":22525,"name":"Thị xã Quảng Yên","name_en":"quang yen","province_id":"225"},
    {"id":30101,"name":"Huyện Nậm Nhùn","name_en":"nam nhun","province_id":"301"},
    {"id":30103,"name":"Thành phố Lai Châu","name_en":"lai chau","province_id":"301"},
    {"id":30105,"name":"Huyện Mường Tè","name_en":"muong te","province_id":"301"},
    {"id":30107,"name":"Huyện Phong Thổ","name_en":"phong tho","province_id":"301"},
    {"id":30108,"name":"Huyện Tam Đường","name_en":"tam duong","province_id":"301"},
    {"id":30109,"name":"Huyện Sìn Hồ","name_en":"sin ho","province_id":"301"},
    {"id":30117,"name":"Huyện Than Uyên","name_en":"than uyen","province_id":"301"},
    {"id":30118,"name":"Huyện Tân Uyên","name_en":"tan uyen","province_id":"301"},
    {"id":30201,"name":"Thành phố Điện Biên Phủ","name_en":"dien bien phu","province_id":"302"},
    {"id":30202,"name":"Huyện Nậm Pồ","name_en":"nam po","province_id":"302"},
    {"id":30203,"name":"Thị xã Mường Lay","name_en":"muong lay","province_id":"302"},
    {"id":30204,"name":"Huyện Mường Nhé","name_en":"muong nhe","province_id":"302"},
    {"id":30211,"name":"Huyện Mường Chà","name_en":"muong cha","province_id":"302"},
    {"id":30213,"name":"Huyện Tủa Chùa","name_en":"tua chua","province_id":"302"},
    {"id":30215,"name":"Huyện Tuần Giáo","name_en":"tuan giao","province_id":"302"},
    {"id":30216,"name":"Huyện Mường Ảng","name_en":"muong ang","province_id":"302"},
    {"id":30217,"name":"Huyện Điện Biên","name_en":"dien bien","province_id":"302"},
    {"id":30219,"name":"Huyện Điện Biên Đông","name_en":"dien bien dong","province_id":"302"},
    {"id":30301,"name":"Thành phố Sơn La","name_en":"son la","province_id":"303"},
    {"id":30303,"name":"Huyện Quỳnh Nhai","name_en":"quynh nhai","province_id":"303"},
    {"id":30305,"name":"Huyện Mường La","name_en":"muong la","province_id":"303"},
    {"id":30307,"name":"Huyện Thuận Châu","name_en":"thuan chau","province_id":"303"},
    {"id":30309,"name":"Huyện Bắc Yên","name_en":"bac yen","province_id":"303"},
    {"id":30311,"name":"Huyện Phù Yên","name_en":"phu yen","province_id":"303"},
    {"id":30313,"name":"Huyện Mai Sơn","name_en":"mai son","province_id":"303"},
    {"id":30315,"name":"Huyện Sông Mã","name_en":"song ma","province_id":"303"},
    {"id":30316,"name":"Huyện Sốp Cộp","name_en":"sop cop","province_id":"303"},
    {"id":30317,"name":"Huyện Yên Châu","name_en":"yen chau","province_id":"303"},
    {"id":30319,"name":"Huyện Mộc Châu","name_en":"moc chau","province_id":"303"},
    {"id":30320,"name":"Huyện Vân Hồ","name_en":"van ho","province_id":"303"},
    {"id":30501,"name":"Thành phố Hòa Bình","name_en":"hoa binh","province_id":"305"},
    {"id":30503,"name":"Huyện Đà Bắc","name_en":"da bac","province_id":"305"},
    {"id":30505,"name":"Huyện Mai Châu","name_en":"mai chau","province_id":"305"},
    {"id":30507,"name":"Huyện Kỳ Sơn","name_en":"ky son","province_id":"305"},
    {"id":30509,"name":"Huyện Lương Sơn","name_en":"luong son","province_id":"305"},
    {"id":30510,"name":"Huyện Cao Phong","name_en":"cao phong","province_id":"305"},
    {"id":30511,"name":"Huyện Kim Bôi","name_en":"kim boi","province_id":"305"},
    {"id":30513,"name":"Huyện Tân Lạc","name_en":"tan lac","province_id":"305"},
    {"id":30515,"name":"Huyện Lạc Sơn","name_en":"lac son","province_id":"305"},
    {"id":30517,"name":"Huyện Lạc Thủy","name_en":"lac thuy","province_id":"305"},
    {"id":30519,"name":"Huyện Yên Thủy","name_en":"yen thuy","province_id":"305"},
    {"id":40101,"name":"Thành phố Thanh Hóa","name_en":"thanh hoa","province_id":"401"},
    {"id":40103,"name":"Thị xã Bỉm Sơn","name_en":"bim son","province_id":"401"},
    {"id":40105,"name":"Thị xã Sầm Sơn","name_en":"sam son","province_id":"401"},
    {"id":40107,"name":"Huyện Mường Lát","name_en":"muong lat","province_id":"401"},
    {"id":40109,"name":"Huyện Quan Hóa","name_en":"quan hoa","province_id":"401"},
    {"id":40111,"name":"Huyện Quan Sơn","name_en":"quan son","province_id":"401"},
    {"id":40113,"name":"Huyện Bá Thước","name_en":"ba thuoc","province_id":"401"},
    {"id":40115,"name":"Huyện Cẩm Thủy","name_en":"cam thuy","province_id":"401"},
    {"id":40117,"name":"Huyện Lang Chánh","name_en":"lang chanh","province_id":"401"},
    {"id":40119,"name":"Huyện Thạch Thành","name_en":"thach thanh","province_id":"401"},
    {"id":40121,"name":"Huyện Ngọc Lặc","name_en":"ngoc lac","province_id":"401"},
    {"id":40123,"name":"Huyện Thường Xuân","name_en":"thuong xuan","province_id":"401"},
    {"id":40125,"name":"Huyện Như Xuân","name_en":"nhu xuan","province_id":"401"},
    {"id":40127,"name":"Huyện Như Thanh","name_en":"nhu thanh","province_id":"401"},
    {"id":40129,"name":"Huyện Vĩnh Lộc","name_en":"vinh loc","province_id":"401"},
    {"id":40131,"name":"Huyện Hà Trung","name_en":"ha trung","province_id":"401"},
    {"id":40133,"name":"Huyện Nga Sơn","name_en":"nga son","province_id":"401"},
    {"id":40135,"name":"Huyện Yên Định","name_en":"yen dinh","province_id":"401"},
    {"id":40137,"name":"Huyện Thọ Xuân","name_en":"tho xuan","province_id":"401"},
    {"id":40139,"name":"Huyện Hậu Lộc","name_en":"hau loc","province_id":"401"},
    {"id":40141,"name":"Huyện Thiệu Hóa","name_en":"thieu hoa","province_id":"401"},
    {"id":40143,"name":"Huyện Hoằng Hóa","name_en":"hoang hoa","province_id":"401"},
    {"id":40145,"name":"Huyện Đông Sơn","name_en":"dong son","province_id":"401"},
    {"id":40147,"name":"Huyện Triệu Sơn","name_en":"trieu son","province_id":"401"},
    {"id":40149,"name":"Huyện Quảng Xương","name_en":"quang xuong","province_id":"401"},
    {"id":40151,"name":"Huyện Nông Cống","name_en":"nong cong","province_id":"401"},
    {"id":40153,"name":"Huyện Tĩnh Gia","name_en":"tinh gia","province_id":"401"},
    {"id":40301,"name":"Thành phố Vinh","name_en":"vinh","province_id":"403"},
    {"id":40303,"name":"Thị xã Cửa Lò","name_en":"cua lo","province_id":"403"},
    {"id":40305,"name":"Huyện Quế Phong","name_en":"que phong","province_id":"403"},
    {"id":40307,"name":"Huyện Quỳ Châu","name_en":"quy chau","province_id":"403"},
    {"id":40309,"name":"Huyện Kỳ Sơn","name_en":"ky son","province_id":"403"},
    {"id":40311,"name":"Huyện Quỳ Hợp","name_en":"quy hop","province_id":"403"},
    {"id":40313,"name":"Huyện Nghĩa Đàn","name_en":"nghia dan","province_id":"403"},
    {"id":40314,"name":"Thị xã Thái Hòa","name_en":"thai hoa","province_id":"403"},
    {"id":40315,"name":"Huyện Tương Dương","name_en":"tuong duong","province_id":"403"},
    {"id":40317,"name":"Huyện Quỳnh Lưu","name_en":"quynh luu","province_id":"403"},
    {"id":40319,"name":"Huyện Tân Kỳ","name_en":"tan ky","province_id":"403"},
    {"id":40321,"name":"Huyện Con Cuông","name_en":"con cuong","province_id":"403"},
    {"id":40323,"name":"Huyện Yên Thành","name_en":"yen thanh","province_id":"403"},
    {"id":40325,"name":"Huyện Diễn Châu","name_en":"dien chau","province_id":"403"},
    {"id":40327,"name":"Huyện Anh Sơn","name_en":"anh son","province_id":"403"},
    {"id":40329,"name":"Huyện Đô Lương","name_en":"do luong","province_id":"403"},
    {"id":40331,"name":"Huyện Thanh Chương","name_en":"thanh chuong","province_id":"403"},
    {"id":40333,"name":"Huyện Nghi Lộc","name_en":"nghi loc","province_id":"403"},
    {"id":40335,"name":"Huyện Nam Đàn","name_en":"nam dan","province_id":"403"},
    {"id":40337,"name":"Huyện Hưng Nguyên","name_en":"hung nguyen","province_id":"403"},
    {"id":40338,"name":"Thị xã Hoàng Mai","name_en":"hoang mai","province_id":"403"},
    {"id":40501,"name":"Thành phố Hà Tĩnh","name_en":"ha tinh","province_id":"405"},
    {"id":40503,"name":"Thị xã Hồng Lĩnh","name_en":"hong linh","province_id":"405"},
    {"id":40505,"name":"Huyện Nghi Xuân","name_en":"nghi xuan","province_id":"405"},
    {"id":40507,"name":"Huyện Đức Thọ","name_en":"duc tho","province_id":"405"},
    {"id":40509,"name":"Huyện Hương Sơn","name_en":"huong son","province_id":"405"},
    {"id":40510,"name":"Huyện Vũ Quang","name_en":"vu quang","province_id":"405"},
    {"id":40511,"name":"Huyện Can Lộc","name_en":"can loc","province_id":"405"},
    {"id":40512,"name":"Huyện Lộc Hà","name_en":"loc ha","province_id":"405"},
    {"id":40513,"name":"Huyện Thạch Hà","name_en":"thach ha","province_id":"405"},
    {"id":40515,"name":"Huyện Cẩm Xuyên","name_en":"cam xuyen","province_id":"405"},
    {"id":40517,"name":"Huyện Hương Khê","name_en":"huong khe","province_id":"405"},
    {"id":40519,"name":"Huyện Kỳ Anh","name_en":"ky anh","province_id":"405"},
    {"id":40701,"name":"Thành phố Đồng Hới","name_en":"dong hoi","province_id":"407"},
    {"id":40703,"name":"Huyện Tuyên Hóa","name_en":"tuyen hoa","province_id":"407"},
    {"id":40705,"name":"Huyện Minh Hóa","name_en":"minh hoa","province_id":"407"},
    {"id":40707,"name":"Thị xã Ba Đồn","name_en":"ba don","province_id":"407"},
    {"id":40709,"name":"Huyện Bố Trạch","name_en":"bo trach","province_id":"407"},
    {"id":40711,"name":"Huyện Quảng Ninh","name_en":"quang ninh","province_id":"407"},
    {"id":40713,"name":"Huyện Lệ Thủy","name_en":"le thuy","province_id":"407"},
    {"id":40715,"name":"Huyện Quảng Trạch","name_en":"quang trach","province_id":"407"},
    {"id":40901,"name":"Thành phố Đông Hà","name_en":"dong ha","province_id":"409"},
    {"id":40903,"name":"Thị xã Quảng Trị","name_en":"quang tri","province_id":"409"},
    {"id":40905,"name":"Huyện Vĩnh Linh","name_en":"vinh linh","province_id":"409"},
    {"id":40906,"name":"Huyện Cồn Cỏ","name_en":"con co","province_id":"409"},
    {"id":40907,"name":"Huyện Gio Linh","name_en":"gio linh","province_id":"409"},
    {"id":40909,"name":"Huyện Cam Lộ","name_en":"cam lo","province_id":"409"},
    {"id":40911,"name":"Huyện Triệu Phong","name_en":"trieu phong","province_id":"409"},
    {"id":40913,"name":"Huyện Hải Lăng","name_en":"hai lang","province_id":"409"},
    {"id":40915,"name":"Huyện Hướng Hóa","name_en":"huong hoa","province_id":"409"},
    {"id":40917,"name":"Huyện Đa Krông","name_en":"da krong","province_id":"409"},
    {"id":41101,"name":"Thành phố Huế","name_en":"hue","province_id":"411"},
    {"id":41103,"name":"Huyện Phong Điền","name_en":"phong dien","province_id":"411"},
    {"id":41105,"name":"Huyện Quảng Điền","name_en":"quang dien","province_id":"411"},
    {"id":41107,"name":"Thị xã Hương Trà","name_en":"huong tra","province_id":"411"},
    {"id":41109,"name":"Huyện Phú Vang","name_en":"phu vang","province_id":"411"},
    {"id":41111,"name":"Thị xã Hương Thủy","name_en":"huong thuy","province_id":"411"},
    {"id":41113,"name":"Huyện Phú Lộc","name_en":"phu loc","province_id":"411"},
    {"id":41115,"name":"Huyện A Lưới","name_en":"a luoi","province_id":"411"},
    {"id":41117,"name":"Huyện Nam Đông","name_en":"nam dong","province_id":"411"},
    {"id":50101,"name":"Quận Hải Châu","name_en":"hai chau","province_id":"501"},
    {"id":50103,"name":"Quận Thanh Khê","name_en":"thanh khe","province_id":"501"},
    {"id":50105,"name":"Quận Sơn Trà","name_en":"son tra","province_id":"501"},
    {"id":50107,"name":"Quận Ngũ Hành Sơn","name_en":"ngu hanh son","province_id":"501"},
    {"id":50109,"name":"Quận Liên Chiểu","name_en":"lien chieu","province_id":"501"},
    {"id":50111,"name":"Huyện Hòa Vang","name_en":"hoa vang","province_id":"501"},
    {"id":50112,"name":"Quận Cẩm Lệ","name_en":"cam le","province_id":"501"},
    {"id":50190,"name":"Huyện Hoàng Sa","name_en":"hoang sa","province_id":"501"},
    {"id":50301,"name":"Thành phố Tam Kỳ","name_en":"tam ky","province_id":"503"},
    {"id":50303,"name":"Thành phố Hội An","name_en":"hoi an","province_id":"503"},
    {"id":50304,"name":"Huyện Tây Giang","name_en":"tay giang","province_id":"503"},
    {"id":50305,"name":"Huyện Đông Giang","name_en":"dong giang","province_id":"503"},
    {"id":50307,"name":"Huyện Đại Lộc","name_en":"dai loc","province_id":"503"},
    {"id":50309,"name":"Huyện Điện Bàn","name_en":"dien ban","province_id":"503"},
    {"id":50311,"name":"Huyện Duy Xuyên","name_en":"duy xuyen","province_id":"503"},
    {"id":50313,"name":"Huyện Nam Giang","name_en":"nam giang","province_id":"503"},
    {"id":50315,"name":"Huyện Thăng Bình","name_en":"thang binh","province_id":"503"},
    {"id":50317,"name":"Huyện Quế Sơn","name_en":"que son","province_id":"503"},
    {"id":50318,"name":"Huyện Nông Sơn","name_en":"nong son","province_id":"503"},
    {"id":50319,"name":"Huyện Hiệp Đức","name_en":"hiep duc","province_id":"503"},
    {"id":50321,"name":"Huyện Tiên Phước","name_en":"tien phuoc","province_id":"503"},
    {"id":50323,"name":"Huyện Phước Sơn","name_en":"phuoc son","province_id":"503"},
    {"id":50325,"name":"Huyện Núi Thành","name_en":"nui thanh","province_id":"503"},
    {"id":50327,"name":"Huyện Bắc Trà My","name_en":"bac tra my","province_id":"503"},
    {"id":50328,"name":"Huyện Nam Trà My","name_en":"nam tra my","province_id":"503"},
    {"id":50329,"name":"Huyện Phú Ninh","name_en":"phu ninh","province_id":"503"},
    {"id":50501,"name":"Thành phố Quảng Ngãi","name_en":"quang ngai","province_id":"505"},
    {"id":50503,"name":"Huyện Lý Sơn","name_en":"ly son","province_id":"505"},
    {"id":50505,"name":"Huyện Bình Sơn","name_en":"binh son","province_id":"505"},
    {"id":50507,"name":"Huyện Trà Bồng","name_en":"tra bong","province_id":"505"},
    {"id":50508,"name":"Huyện Tây Trà","name_en":"tay tra","province_id":"505"},
    {"id":50509,"name":"Huyện Sơn Tịnh","name_en":"son tinh","province_id":"505"},
    {"id":50511,"name":"Huyện Sơn Tây","name_en":"son tay","province_id":"505"},
    {"id":50513,"name":"Huyện Sơn Hà","name_en":"son ha","province_id":"505"},
    {"id":50515,"name":"Huyện Tư Nghĩa","name_en":"tu nghia","province_id":"505"},
    {"id":50517,"name":"Huyện Nghĩa Hành","name_en":"nghia hanh","province_id":"505"},
    {"id":50519,"name":"Huyện Minh Long","name_en":"minh long","province_id":"505"},
    {"id":50521,"name":"Huyện Mộ Đức","name_en":"mo duc","province_id":"505"},
    {"id":50523,"name":"Huyện Đức Phổ","name_en":"duc pho","province_id":"505"},
    {"id":50525,"name":"Huyện Ba Tơ","name_en":"ba to","province_id":"505"},
    {"id":50701,"name":"Thành phố Quy Nhơn","name_en":"quy nhon","province_id":"507"},
    {"id":50703,"name":"Huyện An Lão","name_en":"an lao","province_id":"507"},
    {"id":50705,"name":"Huyện Hoài Nhơn","name_en":"hoai nhon","province_id":"507"},
    {"id":50707,"name":"Huyện Hoài Ân","name_en":"hoai an","province_id":"507"},
    {"id":50709,"name":"Huyện Phù Mỹ","name_en":"phu my","province_id":"507"},
    {"id":50711,"name":"Huyện Vĩnh Thạnh","name_en":"vinh thanh","province_id":"507"},
    {"id":50713,"name":"Huyện Phù Cát","name_en":"phu cat","province_id":"507"},
    {"id":50715,"name":"Huyện Tây Sơn","name_en":"tay son","province_id":"507"},
    {"id":50717,"name":"Thị xã An Nhơn","name_en":"an nhon","province_id":"507"},
    {"id":50719,"name":"Huyện Tuy Phước","name_en":"tuy phuoc","province_id":"507"},
    {"id":50721,"name":"Huyện Vân Canh","name_en":"van canh","province_id":"507"},
    {"id":50901,"name":"Thành phố Tuy Hòa","name_en":"tuy hoa","province_id":"509"},
    {"id":50903,"name":"Huyện Đồng Xuân","name_en":"dong xuan","province_id":"509"},
    {"id":50905,"name":"Thị xã Sông Cầu","name_en":"song cau","province_id":"509"},
    {"id":50907,"name":"Huyện Tuy An","name_en":"tuy an","province_id":"509"},
    {"id":50909,"name":"Huyện Sơn Hòa","name_en":"son hoa","province_id":"509"},
    {"id":50910,"name":"Huyện Phú Hòa","name_en":"phu hoa","province_id":"509"},
    {"id":50911,"name":"Huyện Tây Hòa","name_en":"tay hoa","province_id":"509"},
    {"id":50912,"name":"Huyện Đông Hòa","name_en":"dong hoa","province_id":"509"},
    {"id":50913,"name":"Huyện Sông Hinh","name_en":"song hinh","province_id":"509"},
    {"id":51101,"name":"Thành phố Nha Trang","name_en":"nha trang","province_id":"511"},
    {"id":51102,"name":"Thành phố Cam Ranh","name_en":"cam ranh","province_id":"511"},
    {"id":51103,"name":"Huyện Vạn Ninh","name_en":"van ninh","province_id":"511"},
    {"id":51105,"name":"Thị xã Ninh Hòa","name_en":"ninh hoa","province_id":"511"},
    {"id":51107,"name":"Huyện Diên Khánh","name_en":"dien khanh","province_id":"511"},
    {"id":51108,"name":"Huyện Cam Lâm","name_en":"cam lam","province_id":"511"},
    {"id":51111,"name":"Huyện Khánh Vĩnh","name_en":"khanh vinh","province_id":"511"},
    {"id":51113,"name":"Huyện Khánh Sơn","name_en":"khanh son","province_id":"511"},
    {"id":51190,"name":"Huyện Trường Sa","name_en":"truong sa","province_id":"511"},
    {"id":60101,"name":"Thành phố Kon Tum","name_en":"kon tum","province_id":"601"},
    {"id":60103,"name":"Huyện Đắk Glei","name_en":"dak glei","province_id":"601"},
    {"id":60105,"name":"Huyện Ngọc Hồi","name_en":"ngoc hoi","province_id":"601"},
    {"id":60107,"name":"Huyện Đắk Tô","name_en":"dak to","province_id":"601"},
    {"id":60108,"name":"Huyện Kon Rẫy","name_en":"kon ray","province_id":"601"},
    {"id":60109,"name":"Huyện Kon Plông","name_en":"kon plong","province_id":"601"},
    {"id":60111,"name":"Huyện Đắk Hà","name_en":"dak ha","province_id":"601"},
    {"id":60113,"name":"Huyện Sa Thầy","name_en":"sa thay","province_id":"601"},
    {"id":60114,"name":"Huyện Tu Mơ Rông","name_en":"tu mo rong","province_id":"601"},
    {"id":60301,"name":"Thành phố Pleiku","name_en":"plei ku","province_id":"603"},
    {"id":60303,"name":"Huyện KBang","name_en":"k bang","province_id":"603"},
    {"id":60305,"name":"Huyện Đắk Đoa","name_en":"dak doa","province_id":"603"},
    {"id":60306,"name":"Huyện Mang Yang","name_en":"mang yang","province_id":"603"},
    {"id":60307,"name":"Huyện Chư Păh","name_en":"chu pah","province_id":"603"},
    {"id":60309,"name":"Huyện Ia Grai","name_en":"ia grai","province_id":"603"},
    {"id":60311,"name":"Thị xã An Khê","name_en":"an khe","province_id":"603"},
    {"id":60312,"name":"Huyện Đắk Pơ","name_en":"dak po","province_id":"603"},
    {"id":60313,"name":"Huyện Kông Chro","name_en":"kong chro","province_id":"603"},
    {"id":60315,"name":"Huyện Đức Cơ","name_en":"duc co","province_id":"603"},
    {"id":60317,"name":"Huyện Chư Prông","name_en":"chu prong","province_id":"603"},
    {"id":60319,"name":"Huyện Chư Sê","name_en":"chu se","province_id":"603"},
    {"id":60321,"name":"Thị xã Ayun Pa","name_en":"a yun pa","province_id":"603"},
    {"id":60322,"name":"Huyện Ia Pa","name_en":"ia pa","province_id":"603"},
    {"id":60323,"name":"Huyện Krông Pa","name_en":"krong pa","province_id":"603"},
    {"id":60324,"name":"Huyện Phú Thiện","name_en":"phu thien","province_id":"603"},
    {"id":60325,"name":"Huyện Chư Pưh","name_en":"chu puh","province_id":"603"},
    {"id":60501,"name":"Thành phố Buôn Ma Thuột","name_en":"buon ma thuot","province_id":"605"},
    {"id":60502,"name":"Thị xã Buôn Hồ","name_en":"buon ho","province_id":"605"},
    {"id":60503,"name":"Huyện Ea H'leo","name_en":"ea h' leo","province_id":"605"},
    {"id":60505,"name":"Huyện Ea Súp","name_en":"ea sup","province_id":"605"},
    {"id":60507,"name":"Huyện Krông Năng","name_en":"krong nang","province_id":"605"},
    {"id":60509,"name":"Huyện Krông Búk","name_en":"krong buk","province_id":"605"},
    {"id":60511,"name":"Huyện Buôn Đôn","name_en":"buon don","province_id":"605"},
    {"id":60513,"name":"Huyện Cư M'gar","name_en":"cu m'gar","province_id":"605"},
    {"id":60515,"name":"Huyện Ea Kar","name_en":"ea kar","province_id":"605"},
    {"id":60517,"name":"Huyện M'Đrắk","name_en":"m'drak","province_id":"605"},
    {"id":60519,"name":"Huyện Krông Pắc","name_en":"krong pac","province_id":"605"},
    {"id":60523,"name":"Huyện Krông A Na","name_en":"krong a na","province_id":"605"},
    {"id":60524,"name":"Huyện Cư Kuin","name_en":"cu kuin","province_id":"605"},
    {"id":60525,"name":"Huyện Krông Bông","name_en":"krong bong","province_id":"605"},
    {"id":60531,"name":"Huyện Lắk","name_en":"lak","province_id":"605"},
    {"id":60611,"name":"Thị xã Gia Nghĩa","name_en":"gia nghia","province_id":"606"},
    {"id":60621,"name":"Huyện Cư Jút","name_en":"cu jut","province_id":"606"},
    {"id":60627,"name":"Huyện Đắk Mil","name_en":"dak mil","province_id":"606"},
    {"id":60629,"name":"Huyện Krông Nô","name_en":"krong no","province_id":"606"},
    {"id":60632,"name":"Huyện Đắk Song","name_en":"dak song","province_id":"606"},
    {"id":60633,"name":"Huyện Đắk R'Lấp","name_en":"dak r'lap","province_id":"606"},
    {"id":60634,"name":"Huyện Tuy Đức","name_en":"tuy duc","province_id":"606"},
    {"id":60635,"name":"Huyện Đắk Glong","name_en":"dak glong","province_id":"606"},
    {"id":60701,"name":"Thành phố Đà Lạt","name_en":"da lat","province_id":"607"},
    {"id":60703,"name":"Thành phố Bảo Lộc","name_en":"bao loc","province_id":"607"},
    {"id":60705,"name":"Huyện Lạc Dương","name_en":"lac duong","province_id":"607"},
    {"id":60707,"name":"Huyện Đơn Dương","name_en":"don duong","province_id":"607"},
    {"id":60709,"name":"Huyện Đức Trọng","name_en":"duc trong","province_id":"607"},
    {"id":60711,"name":"Huyện Lâm Hà","name_en":"lam ha","province_id":"607"},
    {"id":60713,"name":"Huyện Bảo Lâm","name_en":"bao lam","province_id":"607"},
    {"id":60715,"name":"Huyện Di Linh","name_en":"di linh","province_id":"607"},
    {"id":60717,"name":"Huyện Đạ Huoai","name_en":"da huoai","province_id":"607"},
    {"id":60719,"name":"Huyện Đạ Tẻh","name_en":"da teh","province_id":"607"},
    {"id":60721,"name":"Huyện Cát Tiên","name_en":"cat tien","province_id":"607"},
    {"id":60723,"name":"Huyện Đam Rông","name_en":"dam rong","province_id":"607"},
    {"id":70101,"name":"Quận 1","name_en":"quan 1","province_id":"701"},
    {"id":70103,"name":"Quận 2","name_en":"quan 2","province_id":"701"},
    {"id":70105,"name":"Quận 3","name_en":"quan 3","province_id":"701"},
    {"id":70107,"name":"Quận 4","name_en":"quan 4","province_id":"701"},
    {"id":70109,"name":"Quận 5","name_en":"quan 5","province_id":"701"},
    {"id":70111,"name":"Quận 6","name_en":"quan 6","province_id":"701"},
    {"id":70113,"name":"Quận 7","name_en":"quan 7","province_id":"701"},
    {"id":70115,"name":"Quận 8","name_en":"quan 8","province_id":"701"},
    {"id":70117,"name":"Quận 9","name_en":"quan 9","province_id":"701"},
    {"id":70119,"name":"Quận 10","name_en":"quan 10","province_id":"701"},
    {"id":70121,"name":"Quận 11","name_en":"quan 11","province_id":"701"},
    {"id":70123,"name":"Quận 12","name_en":"quan 12","province_id":"701"},
    {"id":70125,"name":"Quận Gò Vấp","name_en":"go vap","province_id":"701"},
    {"id":70127,"name":"Quận Tân Bình","name_en":"tan binh","province_id":"701"},
    {"id":70128,"name":"Quận Tân Phú","name_en":"tan phu","province_id":"701"},
    {"id":70129,"name":"Quận Bình Thạnh","name_en":"binh thanh","province_id":"701"},
    {"id":70131,"name":"Quận Phú Nhuận","name_en":"phu nhuan","province_id":"701"},
    {"id":70133,"name":"Quận Thủ Đức","name_en":"thu duc","province_id":"701"},
    {"id":70135,"name":"Huyện Củ Chi","name_en":"cu chi","province_id":"701"},
    {"id":70137,"name":"Huyện Hóc Môn","name_en":"hoc mon","province_id":"701"},
    {"id":70139,"name":"Huyện Bình Chánh","name_en":"binh chanh","province_id":"701"},
    {"id":70140,"name":"Quận Bình Tân","name_en":"binh tan","province_id":"701"},
    {"id":70141,"name":"Huyện Nhà Bè","name_en":"nha be","province_id":"701"},
    {"id":70143,"name":"Huyện Cần Giờ","name_en":"can gio","province_id":"701"},
    {"id":70501,"name":"Thành phố Phan Rang-Tháp Chàm","name_en":"phan rang-thap cham","province_id":"705"},
    {"id":70503,"name":"Huyện Ninh Sơn","name_en":"ninh son","province_id":"705"},
    {"id":70504,"name":"Huyện Bác Ái","name_en":"bac ai","province_id":"705"},
    {"id":70505,"name":"Huyện Ninh Hải","name_en":"ninh hai","province_id":"705"},
    {"id":70506,"name":"Huyện Thuận Bắc","name_en":"thuan bac","province_id":"705"},
    {"id":70507,"name":"Huyện Ninh Phước","name_en":"ninh phuoc","province_id":"705"},
    {"id":70508,"name":"Huyện Thuận Nam","name_en":"thuan nam","province_id":"705"},
    {"id":70701,"name":"Thị xã Đồng Xoài","name_en":"dong xoai","province_id":"707"},
    {"id":70702,"name":"Huyện Đồng Phú","name_en":"dong phu","province_id":"707"},
    {"id":70703,"name":"Thị xã Phước Long","name_en":"phuoc long","province_id":"707"},
    {"id":70705,"name":"Huyện Lộc Ninh","name_en":"loc ninh","province_id":"707"},
    {"id":70706,"name":"Huyện Bù Đốp","name_en":"bu dop","province_id":"707"},
    {"id":70707,"name":"Huyện Bù Đăng","name_en":"bu dang","province_id":"707"},
    {"id":70708,"name":"Huyện Chơn Thành","name_en":"chon thanh","province_id":"707"},
    {"id":70709,"name":"Thị xã Bình Long","name_en":"binh long","province_id":"707"},
    {"id":70710,"name":"Huyện Hớn Quản","name_en":"hon quan","province_id":"707"},
    {"id":70711,"name":"Huyện Bù Gia Mập","name_en":"bu gia map","province_id":"707"},
    {"id":70712,"name":"Huyện Phú Riềng","name_en":"phu rieng","province_id":"707"},
    {"id":70901,"name":"Thành phố Tây Ninh","name_en":"tay ninh","province_id":"709"},
    {"id":70903,"name":"Huyện Tân Biên","name_en":"tan bien","province_id":"709"},
    {"id":70905,"name":"Huyện Tân Châu","name_en":"tan chau","province_id":"709"},
    {"id":70907,"name":"Huyện Dương Minh Châu","name_en":"duong minh chau","province_id":"709"},
    {"id":70909,"name":"Huyện Châu Thành","name_en":"chau thanh","province_id":"709"},
    {"id":70911,"name":"Huyện Hòa Thành","name_en":"hoa thanh","province_id":"709"},
    {"id":70913,"name":"Huyện Bến Cầu","name_en":"ben cau","province_id":"709"},
    {"id":70915,"name":"Huyện Gò Dầu","name_en":"go dau","province_id":"709"},
    {"id":70917,"name":"Huyện Trảng Bàng","name_en":"trang bang","province_id":"709"},
    {"id":71101,"name":"Thành phố Thủ Dầu Một","name_en":"thu dau mot","province_id":"711"},
    {"id":71102,"name":"Huyện Dầu Tiếng","name_en":"dau tieng","province_id":"711"},
    {"id":71103,"name":"Thị xã Bến Cát","name_en":"ben cat","province_id":"711"},
    {"id":71104,"name":"Huyện Phú Giáo","name_en":"phu giao","province_id":"711"},
    {"id":71105,"name":"Thị xã Tân Uyên","name_en":"tan uyen","province_id":"711"},
    {"id":71107,"name":"Thị xã Thuận An","name_en":"thuan an","province_id":"711"},
    {"id":71108,"name":"Thị xã Dĩ An","name_en":"di an","province_id":"711"},
    {"id":71109,"name":"Huyện Bắc Tân Uyên","name_en":"bac tan uyen","province_id":"711"},
    {"id":71110,"name":"Huyện Bàu Bàng","name_en":"bau bang","province_id":"711"},
    {"id":71301,"name":"Thành phố Biên Hòa","name_en":"bien hoa","province_id":"713"},
    {"id":71303,"name":"Huyện Tân Phú","name_en":"tan phu","province_id":"713"},
    {"id":71305,"name":"Huyện Định Quán","name_en":"dinh quan","province_id":"713"},
    {"id":71307,"name":"Huyện Vĩnh Cửu","name_en":"vinh cuu","province_id":"713"},
    {"id":71309,"name":"Huyện Thống Nhất","name_en":"thong nhat","province_id":"713"},
    {"id":71310,"name":"Huyện Trảng Bom","name_en":"trang bom","province_id":"713"},
    {"id":71311,"name":"Thị xã Long Khánh","name_en":"long khanh","province_id":"713"},
    {"id":71312,"name":"Huyện Cẩm Mỹ","name_en":"cam my","province_id":"713"},
    {"id":71313,"name":"Huyện Xuân Lộc","name_en":"xuan loc","province_id":"713"},
    {"id":71315,"name":"Huyện Long Thành","name_en":"long thanh","province_id":"713"},
    {"id":71317,"name":"Huyện Nhơn Trạch","name_en":"nhon trach","province_id":"713"},
    {"id":71501,"name":"Thành phố Phan Thiết","name_en":"phan thiet","province_id":"715"},
    {"id":71502,"name":"Thị xã La Gi","name_en":"la gi","province_id":"715"},
    {"id":71503,"name":"Huyện Tuy Phong","name_en":"tuy phong","province_id":"715"},
    {"id":71505,"name":"Huyện Bắc Bình","name_en":"bac binh","province_id":"715"},
    {"id":71507,"name":"Huyện Hàm Thuận Bắc","name_en":"ham thuan bac","province_id":"715"},
    {"id":71509,"name":"Huyện Hàm Thuận Nam","name_en":"ham thuan nam","province_id":"715"},
    {"id":71511,"name":"Huyện Tánh Linh","name_en":"tanh linh","province_id":"715"},
    {"id":71513,"name":"Huyện Hàm Tân","name_en":"ham tan","province_id":"715"},
    {"id":71515,"name":"Huyện Đức Linh","name_en":"duc linh","province_id":"715"},
    {"id":71517,"name":"Huyện Phú Quý","name_en":"phu quy","province_id":"715"},
    {"id":71701,"name":"Thành phố Vũng Tàu","name_en":"vung tau","province_id":"717"},
    {"id":71703,"name":"Thành phố Bà Rịa","name_en":"ba ria","province_id":"717"},
    {"id":71705,"name":"Huyện Châu Đức","name_en":"chau duc","province_id":"717"},
    {"id":71707,"name":"Huyện Xuyên Mộc","name_en":"xuyen moc","province_id":"717"},
    {"id":71709,"name":"Huyện Tân Thành","name_en":"tan thanh","province_id":"717"},
    {"id":71711,"name":"Huyện Đất Đỏ","name_en":"dat do","province_id":"717"},
    {"id":71712,"name":"Huyện Long Điền","name_en":"long dien","province_id":"717"},
    {"id":71714,"name":"Huyện Côn Đảo","name_en":"con dao","province_id":"717"},
    {"id":80101,"name":"Thành phố Tân An","name_en":"tan an","province_id":"801"},
    {"id":80103,"name":"Huyện Tân Hưng","name_en":"tan hung","province_id":"801"},
    {"id":80105,"name":"Huyện Vĩnh Hưng","name_en":"vinh hung","province_id":"801"},
    {"id":80107,"name":"Huyện Mộc Hóa","name_en":"moc hoa","province_id":"801"},
    {"id":80109,"name":"Huyện Tân Thạnh","name_en":"tan thanh","province_id":"801"},
    {"id":80111,"name":"Huyện Thạnh Hóa","name_en":"thanh hoa","province_id":"801"},
    {"id":80113,"name":"Huyện Đức Huệ","name_en":"duc hue","province_id":"801"},
    {"id":80115,"name":"Huyện Đức Hòa","name_en":"duc hoa","province_id":"801"},
    {"id":80117,"name":"Huyện Bến Lức","name_en":"ben luc","province_id":"801"},
    {"id":80119,"name":"Huyện Thủ Thừa","name_en":"thu thua","province_id":"801"},
    {"id":80121,"name":"Huyện Châu Thành","name_en":"chau thanh","province_id":"801"},
    {"id":80123,"name":"Huyện Tân Trụ","name_en":"tan tru","province_id":"801"},
    {"id":80125,"name":"Huyện Cần Đước","name_en":"can duoc","province_id":"801"},
    {"id":80127,"name":"Huyện Cần Giuộc","name_en":"can giuoc","province_id":"801"},
    {"id":80128,"name":"Thị xã Kiến Tường","name_en":"kien tuong","province_id":"801"},
    {"id":80301,"name":"Thành phố Cao Lãnh","name_en":"cao lanh","province_id":"803"},
    {"id":80303,"name":"Thành phố Sa Đéc","name_en":"sa dec","province_id":"803"},
    {"id":80305,"name":"Huyện Tân Hồng","name_en":"tan hong","province_id":"803"},
    {"id":80307,"name":"Huyện Hồng Ngự","name_en":"hong ngu","province_id":"803"},
    {"id":80308,"name":"Thị xã Hồng Ngự","name_en":"hong ngu","province_id":"803"},
    {"id":80309,"name":"Huyện Tam Nông","name_en":"tam nong","province_id":"803"},
    {"id":80311,"name":"Huyện Thanh Bình","name_en":"thanh binh","province_id":"803"},
    {"id":80313,"name":"Huyện Tháp Mười","name_en":"thap muoi","province_id":"803"},
    {"id":80315,"name":"Huyện Cao Lãnh","name_en":"cao lanh","province_id":"803"},
    {"id":80317,"name":"Huyện Lấp Vò","name_en":"lap vo","province_id":"803"},
    {"id":80319,"name":"Huyện Lai Vung","name_en":"lai vung","province_id":"803"},
    {"id":80321,"name":"Huyện Châu Thành","name_en":"chau thanh","province_id":"803"},
    {"id":80501,"name":"Thành phố Long Xuyên","name_en":"long xuyen","province_id":"805"},
    {"id":80503,"name":"Thành phố Châu Đốc","name_en":"chau doc","province_id":"805"},
    {"id":80505,"name":"Huyện An Phú","name_en":"an phu","province_id":"805"},
    {"id":80507,"name":"Thị xã Tân Châu","name_en":"tan chau","province_id":"805"},
    {"id":80509,"name":"Huyện Phú Tân","name_en":"phu tan","province_id":"805"},
    {"id":80511,"name":"Huyện Châu Phú","name_en":"chau phu","province_id":"805"},
    {"id":80513,"name":"Huyện Tịnh Biên","name_en":"tinh bien","province_id":"805"},
    {"id":80515,"name":"Huyện Tri Tôn","name_en":"tri ton","province_id":"805"},
    {"id":80517,"name":"Huyện Chợ Mới","name_en":"cho moi","province_id":"805"},
    {"id":80519,"name":"Huyện Châu Thành","name_en":"chau thanh","province_id":"805"},
    {"id":80521,"name":"Huyện Thoại Sơn","name_en":"thoai son","province_id":"805"},
    {"id":80701,"name":"Thành phố Mỹ Tho","name_en":"my tho","province_id":"807"},
    {"id":80703,"name":"Thị xã Gò Công","name_en":"go cong","province_id":"807"},
    {"id":80705,"name":"Huyện Tân Phước","name_en":"tan phuoc","province_id":"807"},
    {"id":80707,"name":"Huyện Châu Thành","name_en":"chau thanh","province_id":"807"},
    {"id":80709,"name":"Thị xã Cai Lậy","name_en":"cai lay","province_id":"807"},
    {"id":80711,"name":"Huyện Chợ Gạo","name_en":"cho gao","province_id":"807"},
    {"id":80713,"name":"Huyện Cái Bè","name_en":"cai be","province_id":"807"},
    {"id":80715,"name":"Huyện Gò Công Tây","name_en":"go cong tay","province_id":"807"},
    {"id":80717,"name":"Huyện Gò Công Đông","name_en":"go cong dong","province_id":"807"},
    {"id":80718,"name":"Huyện Tân Phú Đông","name_en":"tan phu dong","province_id":"807"},
    {"id":80719,"name":"Huyện Cai Lậy","name_en":"cai lay","province_id":"807"},
    {"id":80901,"name":"Thành phố Vĩnh Long","name_en":"vinh long","province_id":"809"},
    {"id":80903,"name":"Huyện Long Hồ","name_en":"long ho","province_id":"809"},
    {"id":80905,"name":"Huyện Mang Thít","name_en":"mang thit","province_id":"809"},
    {"id":80907,"name":"Thị xã Bình Minh","name_en":"binh minh","province_id":"809"},
    {"id":80908,"name":"Huyện Bình Tân","name_en":"binh tan","province_id":"809"},
    {"id":80909,"name":"Huyện Tam Bình","name_en":"tam binh","province_id":"809"},
    {"id":80911,"name":"Huyện Trà Ôn","name_en":"tra on","province_id":"809"},
    {"id":80913,"name":"Huyện Vũng Liêm","name_en":"vung liem","province_id":"809"},
    {"id":81101,"name":"Thành phố Bến Tre","name_en":"ben tre","province_id":"811"},
    {"id":81102,"name":"Huyện Mỏ Cày Nam","name_en":"mo cay nam","province_id":"811"},
    {"id":81103,"name":"Huyện Châu Thành","name_en":"chau thanh","province_id":"811"},
    {"id":81105,"name":"Huyện Chợ Lách","name_en":"cho lach","province_id":"811"},
    {"id":81107,"name":"Huyện Mỏ Cày Bắc","name_en":"mo cay bac","province_id":"811"},
    {"id":81109,"name":"Huyện Giồng Trôm","name_en":"giong trom","province_id":"811"},
    {"id":81111,"name":"Huyện Bình Đại","name_en":"binh dai","province_id":"811"},
    {"id":81113,"name":"Huyện Ba Tri","name_en":"ba tri","province_id":"811"},
    {"id":81115,"name":"Huyện Thạnh Phú","name_en":"thanh phu","province_id":"811"},
    {"id":81301,"name":"Thành phố Rạch Giá","name_en":"rach gia","province_id":"813"},
    {"id":81303,"name":"Thị xã Hà Tiên","name_en":"ha tien","province_id":"813"},
    {"id":81304,"name":"Huyện Kiên Lương","name_en":"kien luong","province_id":"813"},
    {"id":81305,"name":"Huyện Hòn Đất","name_en":"hon dat","province_id":"813"},
    {"id":81307,"name":"Huyện Tân Hiệp","name_en":"tan hiep","province_id":"813"},
    {"id":81309,"name":"Huyện Châu Thành","name_en":"chau thanh","province_id":"813"},
    {"id":81311,"name":"Huyện Giồng Riềng","name_en":"giong rieng","province_id":"813"},
    {"id":81313,"name":"Huyện Gò Quao","name_en":"go quao","province_id":"813"},
    {"id":81315,"name":"Huyện An Biên","name_en":"an bien","province_id":"813"},
    {"id":81317,"name":"Huyện An Minh","name_en":"an minh","province_id":"813"},
    {"id":81319,"name":"Huyện Vĩnh Thuận","name_en":"vinh thuan","province_id":"813"},
    {"id":81321,"name":"Huyện Phú Quốc","name_en":"phu quoc","province_id":"813"},
    {"id":81323,"name":"Huyện Kiên Hải","name_en":"kien hai","province_id":"813"},
    {"id":81325,"name":"Huyện U Minh Thượng","name_en":"u minh thuong","province_id":"813"},
    {"id":81326,"name":"Huyện Giang Thành","name_en":"giang thanh","province_id":"813"},
    {"id":81501,"name":"Quận Ninh Kiều","name_en":"ninh kieu","province_id":"815"},
    {"id":81503,"name":"Quận Ô Môn","name_en":"o mon","province_id":"815"},
    {"id":81505,"name":"Quận Bình Thủy","name_en":"binh thuy","province_id":"815"},
    {"id":81507,"name":"Quận Cái Răng","name_en":"cai rang","province_id":"815"},
    {"id":81509,"name":"Quận Thốt Nốt","name_en":"thot not","province_id":"815"},
    {"id":81511,"name":"Huyện Vĩnh Thạnh","name_en":"vinh thanh","province_id":"815"},
    {"id":81513,"name":"Huyện Cờ Đỏ","name_en":"co do","province_id":"815"},
    {"id":81514,"name":"Huyện Thới Lai","name_en":"thoi lai","province_id":"815"},
    {"id":81515,"name":"Huyện Phong Điền","name_en":"phong dien","province_id":"815"},
    {"id":81601,"name":"Thành phố Vị Thanh","name_en":"vi thanh","province_id":"816"},
    {"id":81602,"name":"Thị xã Ngã Bảy","name_en":"nga bay","province_id":"816"},
    {"id":81603,"name":"Huyện Châu Thành A","name_en":"chau thanh a","province_id":"816"},
    {"id":81605,"name":"Huyện Châu Thành","name_en":"chau thanh","province_id":"816"},
    {"id":81607,"name":"Huyện Phụng Hiệp","name_en":"phung hiep","province_id":"816"},
    {"id":81609,"name":"Huyện Vị Thủy","name_en":"vi thuy","province_id":"816"},
    {"id":81611,"name":"Huyện Long Mỹ","name_en":"long my","province_id":"816"},
    {"id":81701,"name":"Thành phố Trà Vinh","name_en":"tra vinh","province_id":"817"},
    {"id":81703,"name":"Huyện Càng Long","name_en":"cang long","province_id":"817"},
    {"id":81705,"name":"Huyện Châu Thành","name_en":"chau thanh","province_id":"817"},
    {"id":81707,"name":"Huyện Cầu Kè","name_en":"cau ke","province_id":"817"},
    {"id":81709,"name":"Huyện Tiểu Cần","name_en":"tieu can","province_id":"817"},
    {"id":81711,"name":"Huyện Cầu Ngang","name_en":"cau ngang","province_id":"817"},
    {"id":81713,"name":"Huyện Trà Cú","name_en":"tra cu","province_id":"817"},
    {"id":81715,"name":"Huyện Duyên Hải","name_en":"duyen hai","province_id":"817"},
    {"id":81901,"name":"Thành phố Sóc Trăng","name_en":"soc trang","province_id":"819"},
    {"id":81903,"name":"Huyện Kế Sách","name_en":"ke sach","province_id":"819"},
    {"id":81905,"name":"Huyện Long Phú","name_en":"long phu","province_id":"819"},
    {"id":81906,"name":"Huyện Cù Lao Dung","name_en":"cu lao dung","province_id":"819"},
    {"id":81907,"name":"Huyện Mỹ Tú","name_en":"my tu","province_id":"819"},
    {"id":81908,"name":"Huyện Châu Thành","name_en":"chau thanh","province_id":"819"},
    {"id":81909,"name":"Huyện Mỹ Xuyên","name_en":"my xuyen","province_id":"819"},
    {"id":81911,"name":"Huyện Thạnh Trị","name_en":"thanh tri","province_id":"819"},
    {"id":81912,"name":"Thị xã Ngã Năm","name_en":"nga nam","province_id":"819"},
    {"id":81913,"name":"Thị xã Vĩnh Châu","name_en":"vinh chau","province_id":"819"},
    {"id":81915,"name":"Huyện Trần Đề","name_en":"tran de","province_id":"819"},
    {"id":82101,"name":"Thành phố Bạc Liêu","name_en":"bac lieu","province_id":"821"},
    {"id":82103,"name":"Huyện Phước Long","name_en":"phuoc long","province_id":"821"},
    {"id":82104,"name":"Huyện Hồng Dân","name_en":"hong dan","province_id":"821"},
    {"id":82105,"name":"Huyện Vĩnh Lợi","name_en":"vinh loi","province_id":"821"},
    {"id":82106,"name":"Huyện Hòa Bình","name_en":"hoa binh","province_id":"821"},
    {"id":82107,"name":"Huyện Giá Rai","name_en":"gia rai","province_id":"821"},
    {"id":82109,"name":"Huyện Đông Hải","name_en":"dong hai","province_id":"821"},
    {"id":82301,"name":"Thành phố Cà Mau","name_en":"ca mau","province_id":"823"},
    {"id":82303,"name":"Huyện Thới Bình","name_en":"thoi binh","province_id":"823"},
    {"id":82305,"name":"Huyện U Minh","name_en":"u minh","province_id":"823"},
    {"id":82307,"name":"Huyện Trần Văn Thời","name_en":"tran van thoi","province_id":"823"},
    {"id":82309,"name":"Huyện Cái Nước","name_en":"cai nuoc","province_id":"823"},
    {"id":82310,"name":"Huyện Phú Tân","name_en":"phu tan","province_id":"823"},
    {"id":82311,"name":"Huyện Đầm Dơi","name_en":"dam doi","province_id":"823"},
    {"id":82313,"name":"Huyện Ngọc Hiển","name_en":"ngoc hien","province_id":"823"},
    {"id":82314,"name":"Huyện Năm Căn","name_en":"nam can","province_id":"823"}
]